﻿[
  {
    "hugo": {
      "identity": 4,
      "labels": [
        "Person"
      ],
      "properties": {
        "name": "Hugo Weaving",
        "born": 1960
      }
    },
    "hugoMovies": {
      "identity": 203,
      "labels": [
        "Movie"
      ],
      "properties": {
        "title": "Captain America: The First Avenger",
        "tagline": "When Patriots Become Heroes",
        "released": 2011
      }
    },
    "coactors": {
      "identity": 181,
      "labels": [
        "Person"
      ],
      "properties": {
        "name": "Samuel L. Jackson",
        "born": 1948
      }
    }
  },
  {
    "hugo": {
      "identity": 4,
      "labels": [
        "Person"
      ],
      "properties": {
        "name": "Hugo Weaving",
        "born": 1960
      }
    },
    "hugoMovies": {
      "identity": 203,
      "labels": [
        "Movie"
      ],
      "properties": {
        "title": "Captain America: The First Avenger",
        "tagline": "When Patriots Become Heroes",
        "released": 2011
      }
    },
    "coactors": {
      "identity": 180,
      "labels": [
        "Person"
      ],
      "properties": {
        "name": "Chris Evans",
        "born": 1981
      }
    }
  },
  {
    "hugo": {
      "identity": 4,
      "labels": [
        "Person"
      ],
      "properties": {
        "name": "Hugo Weaving",
        "born": 1960
      }
    },
    "hugoMovies": {
      "identity": 105,
      "labels": [
        "Movie"
      ],
      "properties": {
        "title": "Cloud Atlas",
        "tagline": "Everything is connected",
        "released": 2012
      }
    },
    "coactors": {
      "identity": 71,
      "labels": [
        "Person"
      ],
      "properties": {
        "name": "Tom Hanks",
        "born": 1956
      }
    }
  },
  {
    "hugo": {
      "identity": 4,
      "labels": [
        "Person"
      ],
      "properties": {
        "name": "Hugo Weaving",
        "born": 1960
      }
    },
    "hugoMovies": {
      "identity": 105,
      "labels": [
        "Movie"
      ],
      "properties": {
        "title": "Cloud Atlas",
        "tagline": "Everything is connected",
        "released": 2012
      }
    },
    "coactors": {
      "identity": 107,
      "labels": [
        "Person"
      ],
      "properties": {
        "name": "Jim Broadbent",
        "born": 1949
      }
    }
  },
  {
    "hugo": {
      "identity": 4,
      "labels": [
        "Person"
      ],
      "properties": {
        "name": "Hugo Weaving",
        "born": 1960
      }
    },
    "hugoMovies": {
      "identity": 105,
      "labels": [
        "Movie"
      ],
      "properties": {
        "title": "Cloud Atlas",
        "tagline": "Everything is connected",
        "released": 2012
      }
    },
    "coactors": {
      "identity": 106,
      "labels": [
        "Person"
      ],
      "properties": {
        "name": "Halle Berry",
        "born": 1966
      }
    }
  },
  {
    "hugo": {
      "identity": 4,
      "labels": [
        "Person"
      ],
      "properties": {
        "name": "Hugo Weaving",
        "born": 1960
      }
    },
    "hugoMovies": {
      "identity": 116,
      "labels": [
        "Movie"
      ],
      "properties": {
        "title": "V for Vendetta",
        "tagline": "Freedom! Forever!",
        "released": 2006
      }
    },
    "coactors": {
      "identity": 119,
      "labels": [
        "Person"
      ],
      "properties": {
        "name": "John Hurt",
        "born": 1940
      }
    }
  },
  {
    "hugo": {
      "identity": 4,
      "labels": [
        "Person"
      ],
      "properties": {
        "name": "Hugo Weaving",
        "born": 1960
      }
    },
    "hugoMovies": {
      "identity": 116,
      "labels": [
        "Movie"
      ],
      "properties": {
        "title": "V for Vendetta",
        "tagline": "Freedom! Forever!",
        "released": 2006
      }
    },
    "coactors": {
      "identity": 118,
      "labels": [
        "Person"
      ],
      "properties": {
        "name": "Stephen Rea",
        "born": 1946
      }
    }
  },
  {
    "hugo": {
      "identity": 4,
      "labels": [
        "Person"
      ],
      "properties": {
        "name": "Hugo Weaving",
        "born": 1960
      }
    },
    "hugoMovies": {
      "identity": 116,
      "labels": [
        "Movie"
      ],
      "properties": {
        "title": "V for Vendetta",
        "tagline": "Freedom! Forever!",
        "released": 2006
      }
    },
    "coactors": {
      "identity": 117,
      "labels": [
        "Person"
      ],
      "properties": {
        "name": "Natalie Portman",
        "born": 1981
      }
    }
  },
  {
    "hugo": {
      "identity": 4,
      "labels": [
        "Person"
      ],
      "properties": {
        "name": "Hugo Weaving",
        "born": 1960
      }
    },
    "hugoMovies": {
      "identity": 116,
      "labels": [
        "Movie"
      ],
      "properties": {
        "title": "V for Vendetta",
        "tagline": "Freedom! Forever!",
        "released": 2006
      }
    },
    "coactors": {
      "identity": 120,
      "labels": [
        "Person"
      ],
      "properties": {
        "name": "Ben Miles",
        "born": 1967
      }
    }
  },
  {
    "hugo": {
      "identity": 4,
      "labels": [
        "Person"
      ],
      "properties": {
        "name": "Hugo Weaving",
        "born": 1960
      }
    },
    "hugoMovies": {
      "identity": 10,
      "labels": [
        "Movie"
      ],
      "properties": {
        "title": "The Matrix Revolutions",
        "tagline": "Everything that has a beginning has an end",
        "released": 2003
      }
    },
    "coactors": {
      "identity": 3,
      "labels": [
        "Person"
      ],
      "properties": {
        "name": "Laurence Fishburne",
        "born": 1961
      }
    }
  },
  {
    "hugo": {
      "identity": 4,
      "labels": [
        "Person"
      ],
      "properties": {
        "name": "Hugo Weaving",
        "born": 1960
      }
    },
    "hugoMovies": {
      "identity": 10,
      "labels": [
        "Movie"
      ],
      "properties": {
        "title": "The Matrix Revolutions",
        "tagline": "Everything that has a beginning has an end",
        "released": 2003
      }
    },
    "coactors": {
      "identity": 2,
      "labels": [
        "Person"
      ],
      "properties": {
        "name": "Carrie-Anne Moss",
        "born": 1967
      }
    }
  },
  {
    "hugo": {
      "identity": 4,
      "labels": [
        "Person"
      ],
      "properties": {
        "name": "Hugo Weaving",
        "born": 1960
      }
    },
    "hugoMovies": {
      "identity": 10,
      "labels": [
        "Movie"
      ],
      "properties": {
        "title": "The Matrix Revolutions",
        "tagline": "Everything that has a beginning has an end",
        "released": 2003
      }
    },
    "coactors": {
      "identity": 1,
      "labels": [
        "Person"
      ],
      "properties": {
        "name": "Keanu Reeves",
        "born": 1964
      }
    }
  },
  {
    "hugo": {
      "identity": 4,
      "labels": [
        "Person"
      ],
      "properties": {
        "name": "Hugo Weaving",
        "born": 1960
      }
    },
    "hugoMovies": {
      "identity": 9,
      "labels": [
        "Movie"
      ],
      "properties": {
        "title": "The Matrix Reloaded",
        "tagline": "Free your mind",
        "released": 2003
      }
    },
    "coactors": {
      "identity": 3,
      "labels": [
        "Person"
      ],
      "properties": {
        "name": "Laurence Fishburne",
        "born": 1961
      }
    }
  },
  {
    "hugo": {
      "identity": 4,
      "labels": [
        "Person"
      ],
      "properties": {
        "name": "Hugo Weaving",
        "born": 1960
      }
    },
    "hugoMovies": {
      "identity": 9,
      "labels": [
        "Movie"
      ],
      "properties": {
        "title": "The Matrix Reloaded",
        "tagline": "Free your mind",
        "released": 2003
      }
    },
    "coactors": {
      "identity": 2,
      "labels": [
        "Person"
      ],
      "properties": {
        "name": "Carrie-Anne Moss",
        "born": 1967
      }
    }
  },
  {
    "hugo": {
      "identity": 4,
      "labels": [
        "Person"
      ],
      "properties": {
        "name": "Hugo Weaving",
        "born": 1960
      }
    },
    "hugoMovies": {
      "identity": 9,
      "labels": [
        "Movie"
      ],
      "properties": {
        "title": "The Matrix Reloaded",
        "tagline": "Free your mind",
        "released": 2003
      }
    },
    "coactors": {
      "identity": 1,
      "labels": [
        "Person"
      ],
      "properties": {
        "name": "Keanu Reeves",
        "born": 1964
      }
    }
  },
  {
    "hugo": {
      "identity": 4,
      "labels": [
        "Person"
      ],
      "properties": {
        "name": "Hugo Weaving",
        "born": 1960
      }
    },
    "hugoMovies": {
      "identity": 0,
      "labels": [
        "Movie"
      ],
      "properties": {
        "title": "The Matrix",
        "tagline": "Welcome to the Real World",
        "released": 1999
      }
    },
    "coactors": {
      "identity": 8,
      "labels": [
        "Person"
      ],
      "properties": {
        "name": "Emil Eifrem",
        "born": 1978
      }
    }
  },
  {
    "hugo": {
      "identity": 4,
      "labels": [
        "Person"
      ],
      "properties": {
        "name": "Hugo Weaving",
        "born": 1960
      }
    },
    "hugoMovies": {
      "identity": 0,
      "labels": [
        "Movie"
      ],
      "properties": {
        "title": "The Matrix",
        "tagline": "Welcome to the Real World",
        "released": 1999
      }
    },
    "coactors": {
      "identity": 3,
      "labels": [
        "Person"
      ],
      "properties": {
        "name": "Laurence Fishburne",
        "born": 1961
      }
    }
  },
  {
    "hugo": {
      "identity": 4,
      "labels": [
        "Person"
      ],
      "properties": {
        "name": "Hugo Weaving",
        "born": 1960
      }
    },
    "hugoMovies": {
      "identity": 0,
      "labels": [
        "Movie"
      ],
      "properties": {
        "title": "The Matrix",
        "tagline": "Welcome to the Real World",
        "released": 1999
      }
    },
    "coactors": {
      "identity": 2,
      "labels": [
        "Person"
      ],
      "properties": {
        "name": "Carrie-Anne Moss",
        "born": 1967
      }
    }
  },
  {
    "hugo": {
      "identity": 4,
      "labels": [
        "Person"
      ],
      "properties": {
        "name": "Hugo Weaving",
        "born": 1960
      }
    },
    "hugoMovies": {
      "identity": 0,
      "labels": [
        "Movie"
      ],
      "properties": {
        "title": "The Matrix",
        "tagline": "Welcome to the Real World",
        "released": 1999
      }
    },
    "coactors": {
      "identity": 1,
      "labels": [
        "Person"
      ],
      "properties": {
        "name": "Keanu Reeves",
        "born": 1964
      }
    }
  }
]