﻿[
  {
    "mm": {
      "identity": 203,
      "labels": [
        "Movie"
      ],
      "properties": {
        "title": "Captain America: The First Avenger",
        "tagline": "When Patriots Become Heroes",
        "released": 2011
      }
    },
    "p": {
      "identity": 4,
      "labels": [
        "Person"
      ],
      "properties": {
        "name": "Hugo Weaving",
        "born": 1960
      }
    },
    "m": {
      "identity": 0,
      "labels": [
        "Movie"
      ],
      "properties": {
        "title": "The Matrix",
        "tagline": "Welcome to the Real World",
        "released": 1999
      }
    }
  },
  {
    "mm": {
      "identity": 105,
      "labels": [
        "Movie"
      ],
      "properties": {
        "title": "Cloud Atlas",
        "tagline": "Everything is connected",
        "released": 2012
      }
    },
    "p": {
      "identity": 4,
      "labels": [
        "Person"
      ],
      "properties": {
        "name": "Hugo Weaving",
        "born": 1960
      }
    },
    "m": {
      "identity": 0,
      "labels": [
        "Movie"
      ],
      "properties": {
        "title": "The Matrix",
        "tagline": "Welcome to the Real World",
        "released": 1999
      }
    }
  },
  {
    "mm": {
      "identity": 116,
      "labels": [
        "Movie"
      ],
      "properties": {
        "title": "V for Vendetta",
        "tagline": "Freedom! Forever!",
        "released": 2006
      }
    },
    "p": {
      "identity": 4,
      "labels": [
        "Person"
      ],
      "properties": {
        "name": "Hugo Weaving",
        "born": 1960
      }
    },
    "m": {
      "identity": 0,
      "labels": [
        "Movie"
      ],
      "properties": {
        "title": "The Matrix",
        "tagline": "Welcome to the Real World",
        "released": 1999
      }
    }
  },
  {
    "mm": {
      "identity": 10,
      "labels": [
        "Movie"
      ],
      "properties": {
        "title": "The Matrix Revolutions",
        "tagline": "Everything that has a beginning has an end",
        "released": 2003
      }
    },
    "p": {
      "identity": 4,
      "labels": [
        "Person"
      ],
      "properties": {
        "name": "Hugo Weaving",
        "born": 1960
      }
    },
    "m": {
      "identity": 0,
      "labels": [
        "Movie"
      ],
      "properties": {
        "title": "The Matrix",
        "tagline": "Welcome to the Real World",
        "released": 1999
      }
    }
  },
  {
    "mm": {
      "identity": 9,
      "labels": [
        "Movie"
      ],
      "properties": {
        "title": "The Matrix Reloaded",
        "tagline": "Free your mind",
        "released": 2003
      }
    },
    "p": {
      "identity": 4,
      "labels": [
        "Person"
      ],
      "properties": {
        "name": "Hugo Weaving",
        "born": 1960
      }
    },
    "m": {
      "identity": 0,
      "labels": [
        "Movie"
      ],
      "properties": {
        "title": "The Matrix",
        "tagline": "Welcome to the Real World",
        "released": 1999
      }
    }
  },
  {
    "mm": {
      "identity": 10,
      "labels": [
        "Movie"
      ],
      "properties": {
        "title": "The Matrix Revolutions",
        "tagline": "Everything that has a beginning has an end",
        "released": 2003
      }
    },
    "p": {
      "identity": 3,
      "labels": [
        "Person"
      ],
      "properties": {
        "name": "Laurence Fishburne",
        "born": 1961
      }
    },
    "m": {
      "identity": 0,
      "labels": [
        "Movie"
      ],
      "properties": {
        "title": "The Matrix",
        "tagline": "Welcome to the Real World",
        "released": 1999
      }
    }
  },
  {
    "mm": {
      "identity": 9,
      "labels": [
        "Movie"
      ],
      "properties": {
        "title": "The Matrix Reloaded",
        "tagline": "Free your mind",
        "released": 2003
      }
    },
    "p": {
      "identity": 3,
      "labels": [
        "Person"
      ],
      "properties": {
        "name": "Laurence Fishburne",
        "born": 1961
      }
    },
    "m": {
      "identity": 0,
      "labels": [
        "Movie"
      ],
      "properties": {
        "title": "The Matrix",
        "tagline": "Welcome to the Real World",
        "released": 1999
      }
    }
  },
  {
    "mm": {
      "identity": 10,
      "labels": [
        "Movie"
      ],
      "properties": {
        "title": "The Matrix Revolutions",
        "tagline": "Everything that has a beginning has an end",
        "released": 2003
      }
    },
    "p": {
      "identity": 2,
      "labels": [
        "Person"
      ],
      "properties": {
        "name": "Carrie-Anne Moss",
        "born": 1967
      }
    },
    "m": {
      "identity": 0,
      "labels": [
        "Movie"
      ],
      "properties": {
        "title": "The Matrix",
        "tagline": "Welcome to the Real World",
        "released": 1999
      }
    }
  },
  {
    "mm": {
      "identity": 9,
      "labels": [
        "Movie"
      ],
      "properties": {
        "title": "The Matrix Reloaded",
        "tagline": "Free your mind",
        "released": 2003
      }
    },
    "p": {
      "identity": 2,
      "labels": [
        "Person"
      ],
      "properties": {
        "name": "Carrie-Anne Moss",
        "born": 1967
      }
    },
    "m": {
      "identity": 0,
      "labels": [
        "Movie"
      ],
      "properties": {
        "title": "The Matrix",
        "tagline": "Welcome to the Real World",
        "released": 1999
      }
    }
  },
  {
    "mm": {
      "identity": 154,
      "labels": [
        "Movie"
      ],
      "properties": {
        "title": "Something's Gotta Give",
        "released": 2003
      }
    },
    "p": {
      "identity": 1,
      "labels": [
        "Person"
      ],
      "properties": {
        "name": "Keanu Reeves",
        "born": 1964
      }
    },
    "m": {
      "identity": 0,
      "labels": [
        "Movie"
      ],
      "properties": {
        "title": "The Matrix",
        "tagline": "Welcome to the Real World",
        "released": 1999
      }
    }
  },
  {
    "mm": {
      "identity": 87,
      "labels": [
        "Movie"
      ],
      "properties": {
        "title": "The Replacements",
        "tagline": "Pain heals, Chicks dig scars... Glory lasts forever",
        "released": 2000
      }
    },
    "p": {
      "identity": 1,
      "labels": [
        "Person"
      ],
      "properties": {
        "name": "Keanu Reeves",
        "born": 1964
      }
    },
    "m": {
      "identity": 0,
      "labels": [
        "Movie"
      ],
      "properties": {
        "title": "The Matrix",
        "tagline": "Welcome to the Real World",
        "released": 1999
      }
    }
  },
  {
    "mm": {
      "identity": 100,
      "labels": [
        "Movie"
      ],
      "properties": {
        "title": "Johnny Mnemonic",
        "tagline": "The hottest data on earth. In the coolest head in town",
        "released": 1995
      }
    },
    "p": {
      "identity": 1,
      "labels": [
        "Person"
      ],
      "properties": {
        "name": "Keanu Reeves",
        "born": 1964
      }
    },
    "m": {
      "identity": 0,
      "labels": [
        "Movie"
      ],
      "properties": {
        "title": "The Matrix",
        "tagline": "Welcome to the Real World",
        "released": 1999
      }
    }
  },
  {
    "mm": {
      "identity": 11,
      "labels": [
        "Movie"
      ],
      "properties": {
        "title": "The Devil's Advocate",
        "tagline": "Evil has its winning ways",
        "released": 1997
      }
    },
    "p": {
      "identity": 1,
      "labels": [
        "Person"
      ],
      "properties": {
        "name": "Keanu Reeves",
        "born": 1964
      }
    },
    "m": {
      "identity": 0,
      "labels": [
        "Movie"
      ],
      "properties": {
        "title": "The Matrix",
        "tagline": "Welcome to the Real World",
        "released": 1999
      }
    }
  },
  {
    "mm": {
      "identity": 10,
      "labels": [
        "Movie"
      ],
      "properties": {
        "title": "The Matrix Revolutions",
        "tagline": "Everything that has a beginning has an end",
        "released": 2003
      }
    },
    "p": {
      "identity": 1,
      "labels": [
        "Person"
      ],
      "properties": {
        "name": "Keanu Reeves",
        "born": 1964
      }
    },
    "m": {
      "identity": 0,
      "labels": [
        "Movie"
      ],
      "properties": {
        "title": "The Matrix",
        "tagline": "Welcome to the Real World",
        "released": 1999
      }
    }
  },
  {
    "mm": {
      "identity": 9,
      "labels": [
        "Movie"
      ],
      "properties": {
        "title": "The Matrix Reloaded",
        "tagline": "Free your mind",
        "released": 2003
      }
    },
    "p": {
      "identity": 1,
      "labels": [
        "Person"
      ],
      "properties": {
        "name": "Keanu Reeves",
        "born": 1964
      }
    },
    "m": {
      "identity": 0,
      "labels": [
        "Movie"
      ],
      "properties": {
        "title": "The Matrix",
        "tagline": "Welcome to the Real World",
        "released": 1999
      }
    }
  },
  {
    "mm": {
      "identity": 203,
      "labels": [
        "Movie"
      ],
      "properties": {
        "title": "Captain America: The First Avenger",
        "tagline": "When Patriots Become Heroes",
        "released": 2011
      }
    },
    "p": {
      "identity": 4,
      "labels": [
        "Person"
      ],
      "properties": {
        "name": "Hugo Weaving",
        "born": 1960
      }
    },
    "m": {
      "identity": 9,
      "labels": [
        "Movie"
      ],
      "properties": {
        "title": "The Matrix Reloaded",
        "tagline": "Free your mind",
        "released": 2003
      }
    }
  },
  {
    "mm": {
      "identity": 105,
      "labels": [
        "Movie"
      ],
      "properties": {
        "title": "Cloud Atlas",
        "tagline": "Everything is connected",
        "released": 2012
      }
    },
    "p": {
      "identity": 4,
      "labels": [
        "Person"
      ],
      "properties": {
        "name": "Hugo Weaving",
        "born": 1960
      }
    },
    "m": {
      "identity": 9,
      "labels": [
        "Movie"
      ],
      "properties": {
        "title": "The Matrix Reloaded",
        "tagline": "Free your mind",
        "released": 2003
      }
    }
  },
  {
    "mm": {
      "identity": 116,
      "labels": [
        "Movie"
      ],
      "properties": {
        "title": "V for Vendetta",
        "tagline": "Freedom! Forever!",
        "released": 2006
      }
    },
    "p": {
      "identity": 4,
      "labels": [
        "Person"
      ],
      "properties": {
        "name": "Hugo Weaving",
        "born": 1960
      }
    },
    "m": {
      "identity": 9,
      "labels": [
        "Movie"
      ],
      "properties": {
        "title": "The Matrix Reloaded",
        "tagline": "Free your mind",
        "released": 2003
      }
    }
  },
  {
    "mm": {
      "identity": 10,
      "labels": [
        "Movie"
      ],
      "properties": {
        "title": "The Matrix Revolutions",
        "tagline": "Everything that has a beginning has an end",
        "released": 2003
      }
    },
    "p": {
      "identity": 4,
      "labels": [
        "Person"
      ],
      "properties": {
        "name": "Hugo Weaving",
        "born": 1960
      }
    },
    "m": {
      "identity": 9,
      "labels": [
        "Movie"
      ],
      "properties": {
        "title": "The Matrix Reloaded",
        "tagline": "Free your mind",
        "released": 2003
      }
    }
  },
  {
    "mm": {
      "identity": 0,
      "labels": [
        "Movie"
      ],
      "properties": {
        "title": "The Matrix",
        "tagline": "Welcome to the Real World",
        "released": 1999
      }
    },
    "p": {
      "identity": 4,
      "labels": [
        "Person"
      ],
      "properties": {
        "name": "Hugo Weaving",
        "born": 1960
      }
    },
    "m": {
      "identity": 9,
      "labels": [
        "Movie"
      ],
      "properties": {
        "title": "The Matrix Reloaded",
        "tagline": "Free your mind",
        "released": 2003
      }
    }
  },
  {
    "mm": {
      "identity": 10,
      "labels": [
        "Movie"
      ],
      "properties": {
        "title": "The Matrix Revolutions",
        "tagline": "Everything that has a beginning has an end",
        "released": 2003
      }
    },
    "p": {
      "identity": 3,
      "labels": [
        "Person"
      ],
      "properties": {
        "name": "Laurence Fishburne",
        "born": 1961
      }
    },
    "m": {
      "identity": 9,
      "labels": [
        "Movie"
      ],
      "properties": {
        "title": "The Matrix Reloaded",
        "tagline": "Free your mind",
        "released": 2003
      }
    }
  },
  {
    "mm": {
      "identity": 0,
      "labels": [
        "Movie"
      ],
      "properties": {
        "title": "The Matrix",
        "tagline": "Welcome to the Real World",
        "released": 1999
      }
    },
    "p": {
      "identity": 3,
      "labels": [
        "Person"
      ],
      "properties": {
        "name": "Laurence Fishburne",
        "born": 1961
      }
    },
    "m": {
      "identity": 9,
      "labels": [
        "Movie"
      ],
      "properties": {
        "title": "The Matrix Reloaded",
        "tagline": "Free your mind",
        "released": 2003
      }
    }
  },
  {
    "mm": {
      "identity": 10,
      "labels": [
        "Movie"
      ],
      "properties": {
        "title": "The Matrix Revolutions",
        "tagline": "Everything that has a beginning has an end",
        "released": 2003
      }
    },
    "p": {
      "identity": 2,
      "labels": [
        "Person"
      ],
      "properties": {
        "name": "Carrie-Anne Moss",
        "born": 1967
      }
    },
    "m": {
      "identity": 9,
      "labels": [
        "Movie"
      ],
      "properties": {
        "title": "The Matrix Reloaded",
        "tagline": "Free your mind",
        "released": 2003
      }
    }
  },
  {
    "mm": {
      "identity": 0,
      "labels": [
        "Movie"
      ],
      "properties": {
        "title": "The Matrix",
        "tagline": "Welcome to the Real World",
        "released": 1999
      }
    },
    "p": {
      "identity": 2,
      "labels": [
        "Person"
      ],
      "properties": {
        "name": "Carrie-Anne Moss",
        "born": 1967
      }
    },
    "m": {
      "identity": 9,
      "labels": [
        "Movie"
      ],
      "properties": {
        "title": "The Matrix Reloaded",
        "tagline": "Free your mind",
        "released": 2003
      }
    }
  },
  {
    "mm": {
      "identity": 154,
      "labels": [
        "Movie"
      ],
      "properties": {
        "title": "Something's Gotta Give",
        "released": 2003
      }
    },
    "p": {
      "identity": 1,
      "labels": [
        "Person"
      ],
      "properties": {
        "name": "Keanu Reeves",
        "born": 1964
      }
    },
    "m": {
      "identity": 9,
      "labels": [
        "Movie"
      ],
      "properties": {
        "title": "The Matrix Reloaded",
        "tagline": "Free your mind",
        "released": 2003
      }
    }
  },
  {
    "mm": {
      "identity": 87,
      "labels": [
        "Movie"
      ],
      "properties": {
        "title": "The Replacements",
        "tagline": "Pain heals, Chicks dig scars... Glory lasts forever",
        "released": 2000
      }
    },
    "p": {
      "identity": 1,
      "labels": [
        "Person"
      ],
      "properties": {
        "name": "Keanu Reeves",
        "born": 1964
      }
    },
    "m": {
      "identity": 9,
      "labels": [
        "Movie"
      ],
      "properties": {
        "title": "The Matrix Reloaded",
        "tagline": "Free your mind",
        "released": 2003
      }
    }
  },
  {
    "mm": {
      "identity": 100,
      "labels": [
        "Movie"
      ],
      "properties": {
        "title": "Johnny Mnemonic",
        "tagline": "The hottest data on earth. In the coolest head in town",
        "released": 1995
      }
    },
    "p": {
      "identity": 1,
      "labels": [
        "Person"
      ],
      "properties": {
        "name": "Keanu Reeves",
        "born": 1964
      }
    },
    "m": {
      "identity": 9,
      "labels": [
        "Movie"
      ],
      "properties": {
        "title": "The Matrix Reloaded",
        "tagline": "Free your mind",
        "released": 2003
      }
    }
  },
  {
    "mm": {
      "identity": 11,
      "labels": [
        "Movie"
      ],
      "properties": {
        "title": "The Devil's Advocate",
        "tagline": "Evil has its winning ways",
        "released": 1997
      }
    },
    "p": {
      "identity": 1,
      "labels": [
        "Person"
      ],
      "properties": {
        "name": "Keanu Reeves",
        "born": 1964
      }
    },
    "m": {
      "identity": 9,
      "labels": [
        "Movie"
      ],
      "properties": {
        "title": "The Matrix Reloaded",
        "tagline": "Free your mind",
        "released": 2003
      }
    }
  },
  {
    "mm": {
      "identity": 10,
      "labels": [
        "Movie"
      ],
      "properties": {
        "title": "The Matrix Revolutions",
        "tagline": "Everything that has a beginning has an end",
        "released": 2003
      }
    },
    "p": {
      "identity": 1,
      "labels": [
        "Person"
      ],
      "properties": {
        "name": "Keanu Reeves",
        "born": 1964
      }
    },
    "m": {
      "identity": 9,
      "labels": [
        "Movie"
      ],
      "properties": {
        "title": "The Matrix Reloaded",
        "tagline": "Free your mind",
        "released": 2003
      }
    }
  },
  {
    "mm": {
      "identity": 0,
      "labels": [
        "Movie"
      ],
      "properties": {
        "title": "The Matrix",
        "tagline": "Welcome to the Real World",
        "released": 1999
      }
    },
    "p": {
      "identity": 1,
      "labels": [
        "Person"
      ],
      "properties": {
        "name": "Keanu Reeves",
        "born": 1964
      }
    },
    "m": {
      "identity": 9,
      "labels": [
        "Movie"
      ],
      "properties": {
        "title": "The Matrix Reloaded",
        "tagline": "Free your mind",
        "released": 2003
      }
    }
  },
  {
    "mm": {
      "identity": 203,
      "labels": [
        "Movie"
      ],
      "properties": {
        "title": "Captain America: The First Avenger",
        "tagline": "When Patriots Become Heroes",
        "released": 2011
      }
    },
    "p": {
      "identity": 4,
      "labels": [
        "Person"
      ],
      "properties": {
        "name": "Hugo Weaving",
        "born": 1960
      }
    },
    "m": {
      "identity": 10,
      "labels": [
        "Movie"
      ],
      "properties": {
        "title": "The Matrix Revolutions",
        "tagline": "Everything that has a beginning has an end",
        "released": 2003
      }
    }
  },
  {
    "mm": {
      "identity": 105,
      "labels": [
        "Movie"
      ],
      "properties": {
        "title": "Cloud Atlas",
        "tagline": "Everything is connected",
        "released": 2012
      }
    },
    "p": {
      "identity": 4,
      "labels": [
        "Person"
      ],
      "properties": {
        "name": "Hugo Weaving",
        "born": 1960
      }
    },
    "m": {
      "identity": 10,
      "labels": [
        "Movie"
      ],
      "properties": {
        "title": "The Matrix Revolutions",
        "tagline": "Everything that has a beginning has an end",
        "released": 2003
      }
    }
  },
  {
    "mm": {
      "identity": 116,
      "labels": [
        "Movie"
      ],
      "properties": {
        "title": "V for Vendetta",
        "tagline": "Freedom! Forever!",
        "released": 2006
      }
    },
    "p": {
      "identity": 4,
      "labels": [
        "Person"
      ],
      "properties": {
        "name": "Hugo Weaving",
        "born": 1960
      }
    },
    "m": {
      "identity": 10,
      "labels": [
        "Movie"
      ],
      "properties": {
        "title": "The Matrix Revolutions",
        "tagline": "Everything that has a beginning has an end",
        "released": 2003
      }
    }
  },
  {
    "mm": {
      "identity": 9,
      "labels": [
        "Movie"
      ],
      "properties": {
        "title": "The Matrix Reloaded",
        "tagline": "Free your mind",
        "released": 2003
      }
    },
    "p": {
      "identity": 4,
      "labels": [
        "Person"
      ],
      "properties": {
        "name": "Hugo Weaving",
        "born": 1960
      }
    },
    "m": {
      "identity": 10,
      "labels": [
        "Movie"
      ],
      "properties": {
        "title": "The Matrix Revolutions",
        "tagline": "Everything that has a beginning has an end",
        "released": 2003
      }
    }
  },
  {
    "mm": {
      "identity": 0,
      "labels": [
        "Movie"
      ],
      "properties": {
        "title": "The Matrix",
        "tagline": "Welcome to the Real World",
        "released": 1999
      }
    },
    "p": {
      "identity": 4,
      "labels": [
        "Person"
      ],
      "properties": {
        "name": "Hugo Weaving",
        "born": 1960
      }
    },
    "m": {
      "identity": 10,
      "labels": [
        "Movie"
      ],
      "properties": {
        "title": "The Matrix Revolutions",
        "tagline": "Everything that has a beginning has an end",
        "released": 2003
      }
    }
  },
  {
    "mm": {
      "identity": 9,
      "labels": [
        "Movie"
      ],
      "properties": {
        "title": "The Matrix Reloaded",
        "tagline": "Free your mind",
        "released": 2003
      }
    },
    "p": {
      "identity": 3,
      "labels": [
        "Person"
      ],
      "properties": {
        "name": "Laurence Fishburne",
        "born": 1961
      }
    },
    "m": {
      "identity": 10,
      "labels": [
        "Movie"
      ],
      "properties": {
        "title": "The Matrix Revolutions",
        "tagline": "Everything that has a beginning has an end",
        "released": 2003
      }
    }
  },
  {
    "mm": {
      "identity": 0,
      "labels": [
        "Movie"
      ],
      "properties": {
        "title": "The Matrix",
        "tagline": "Welcome to the Real World",
        "released": 1999
      }
    },
    "p": {
      "identity": 3,
      "labels": [
        "Person"
      ],
      "properties": {
        "name": "Laurence Fishburne",
        "born": 1961
      }
    },
    "m": {
      "identity": 10,
      "labels": [
        "Movie"
      ],
      "properties": {
        "title": "The Matrix Revolutions",
        "tagline": "Everything that has a beginning has an end",
        "released": 2003
      }
    }
  },
  {
    "mm": {
      "identity": 9,
      "labels": [
        "Movie"
      ],
      "properties": {
        "title": "The Matrix Reloaded",
        "tagline": "Free your mind",
        "released": 2003
      }
    },
    "p": {
      "identity": 2,
      "labels": [
        "Person"
      ],
      "properties": {
        "name": "Carrie-Anne Moss",
        "born": 1967
      }
    },
    "m": {
      "identity": 10,
      "labels": [
        "Movie"
      ],
      "properties": {
        "title": "The Matrix Revolutions",
        "tagline": "Everything that has a beginning has an end",
        "released": 2003
      }
    }
  },
  {
    "mm": {
      "identity": 0,
      "labels": [
        "Movie"
      ],
      "properties": {
        "title": "The Matrix",
        "tagline": "Welcome to the Real World",
        "released": 1999
      }
    },
    "p": {
      "identity": 2,
      "labels": [
        "Person"
      ],
      "properties": {
        "name": "Carrie-Anne Moss",
        "born": 1967
      }
    },
    "m": {
      "identity": 10,
      "labels": [
        "Movie"
      ],
      "properties": {
        "title": "The Matrix Revolutions",
        "tagline": "Everything that has a beginning has an end",
        "released": 2003
      }
    }
  },
  {
    "mm": {
      "identity": 154,
      "labels": [
        "Movie"
      ],
      "properties": {
        "title": "Something's Gotta Give",
        "released": 2003
      }
    },
    "p": {
      "identity": 1,
      "labels": [
        "Person"
      ],
      "properties": {
        "name": "Keanu Reeves",
        "born": 1964
      }
    },
    "m": {
      "identity": 10,
      "labels": [
        "Movie"
      ],
      "properties": {
        "title": "The Matrix Revolutions",
        "tagline": "Everything that has a beginning has an end",
        "released": 2003
      }
    }
  },
  {
    "mm": {
      "identity": 87,
      "labels": [
        "Movie"
      ],
      "properties": {
        "title": "The Replacements",
        "tagline": "Pain heals, Chicks dig scars... Glory lasts forever",
        "released": 2000
      }
    },
    "p": {
      "identity": 1,
      "labels": [
        "Person"
      ],
      "properties": {
        "name": "Keanu Reeves",
        "born": 1964
      }
    },
    "m": {
      "identity": 10,
      "labels": [
        "Movie"
      ],
      "properties": {
        "title": "The Matrix Revolutions",
        "tagline": "Everything that has a beginning has an end",
        "released": 2003
      }
    }
  },
  {
    "mm": {
      "identity": 100,
      "labels": [
        "Movie"
      ],
      "properties": {
        "title": "Johnny Mnemonic",
        "tagline": "The hottest data on earth. In the coolest head in town",
        "released": 1995
      }
    },
    "p": {
      "identity": 1,
      "labels": [
        "Person"
      ],
      "properties": {
        "name": "Keanu Reeves",
        "born": 1964
      }
    },
    "m": {
      "identity": 10,
      "labels": [
        "Movie"
      ],
      "properties": {
        "title": "The Matrix Revolutions",
        "tagline": "Everything that has a beginning has an end",
        "released": 2003
      }
    }
  },
  {
    "mm": {
      "identity": 11,
      "labels": [
        "Movie"
      ],
      "properties": {
        "title": "The Devil's Advocate",
        "tagline": "Evil has its winning ways",
        "released": 1997
      }
    },
    "p": {
      "identity": 1,
      "labels": [
        "Person"
      ],
      "properties": {
        "name": "Keanu Reeves",
        "born": 1964
      }
    },
    "m": {
      "identity": 10,
      "labels": [
        "Movie"
      ],
      "properties": {
        "title": "The Matrix Revolutions",
        "tagline": "Everything that has a beginning has an end",
        "released": 2003
      }
    }
  },
  {
    "mm": {
      "identity": 9,
      "labels": [
        "Movie"
      ],
      "properties": {
        "title": "The Matrix Reloaded",
        "tagline": "Free your mind",
        "released": 2003
      }
    },
    "p": {
      "identity": 1,
      "labels": [
        "Person"
      ],
      "properties": {
        "name": "Keanu Reeves",
        "born": 1964
      }
    },
    "m": {
      "identity": 10,
      "labels": [
        "Movie"
      ],
      "properties": {
        "title": "The Matrix Revolutions",
        "tagline": "Everything that has a beginning has an end",
        "released": 2003
      }
    }
  },
  {
    "mm": {
      "identity": 0,
      "labels": [
        "Movie"
      ],
      "properties": {
        "title": "The Matrix",
        "tagline": "Welcome to the Real World",
        "released": 1999
      }
    },
    "p": {
      "identity": 1,
      "labels": [
        "Person"
      ],
      "properties": {
        "name": "Keanu Reeves",
        "born": 1964
      }
    },
    "m": {
      "identity": 10,
      "labels": [
        "Movie"
      ],
      "properties": {
        "title": "The Matrix Revolutions",
        "tagline": "Everything that has a beginning has an end",
        "released": 2003
      }
    }
  }
]