﻿[
  {
    "hugo": {
      "identity": 4,
      "labels": [
        "Person"
      ],
      "properties": {
        "name": "Hugo Weaving",
        "born": 1960
      }
    },
    "hugoMovies": {
      "identity": 203,
      "labels": [
        "Movie"
      ],
      "properties": {
        "title": "Captain America: The First Avenger",
        "tagline": "When Patriots Become Heroes",
        "released": 2011
      }
    },
    "directors": {
      "identity": 200,
      "labels": [
        "Person"
      ],
      "properties": {
        "name": "Joe Johnson",
        "born": 1950
      }
    }
  },
  {
    "hugo": {
      "identity": 4,
      "labels": [
        "Person"
      ],
      "properties": {
        "name": "Hugo Weaving",
        "born": 1960
      }
    },
    "hugoMovies": {
      "identity": 105,
      "labels": [
        "Movie"
      ],
      "properties": {
        "title": "Cloud Atlas",
        "tagline": "Everything is connected",
        "released": 2012
      }
    },
    "directors": {
      "identity": 108,
      "labels": [
        "Person"
      ],
      "properties": {
        "name": "Tom Tykwer",
        "born": 1965
      }
    }
  },
  {
    "hugo": {
      "identity": 4,
      "labels": [
        "Person"
      ],
      "properties": {
        "name": "Hugo Weaving",
        "born": 1960
      }
    },
    "hugoMovies": {
      "identity": 105,
      "labels": [
        "Movie"
      ],
      "properties": {
        "title": "Cloud Atlas",
        "tagline": "Everything is connected",
        "released": 2012
      }
    },
    "directors": {
      "identity": 6,
      "labels": [
        "Person"
      ],
      "properties": {
        "name": "Lana Wachowski",
        "born": 1965
      }
    }
  },
  {
    "hugo": {
      "identity": 4,
      "labels": [
        "Person"
      ],
      "properties": {
        "name": "Hugo Weaving",
        "born": 1960
      }
    },
    "hugoMovies": {
      "identity": 105,
      "labels": [
        "Movie"
      ],
      "properties": {
        "title": "Cloud Atlas",
        "tagline": "Everything is connected",
        "released": 2012
      }
    },
    "directors": {
      "identity": 5,
      "labels": [
        "Person"
      ],
      "properties": {
        "name": "Lilly Wachowski",
        "born": 1967
      }
    }
  },
  {
    "hugo": {
      "identity": 4,
      "labels": [
        "Person"
      ],
      "properties": {
        "name": "Hugo Weaving",
        "born": 1960
      }
    },
    "hugoMovies": {
      "identity": 116,
      "labels": [
        "Movie"
      ],
      "properties": {
        "title": "V for Vendetta",
        "tagline": "Freedom! Forever!",
        "released": 2006
      }
    },
    "directors": {
      "identity": 25,
      "labels": [
        "Person"
      ],
      "properties": {
        "name": "James Marshall",
        "born": 1967
      }
    }
  },
  {
    "hugo": {
      "identity": 4,
      "labels": [
        "Person"
      ],
      "properties": {
        "name": "Hugo Weaving",
        "born": 1960
      }
    },
    "hugoMovies": {
      "identity": 10,
      "labels": [
        "Movie"
      ],
      "properties": {
        "title": "The Matrix Revolutions",
        "tagline": "Everything that has a beginning has an end",
        "released": 2003
      }
    },
    "directors": {
      "identity": 6,
      "labels": [
        "Person"
      ],
      "properties": {
        "name": "Lana Wachowski",
        "born": 1965
      }
    }
  },
  {
    "hugo": {
      "identity": 4,
      "labels": [
        "Person"
      ],
      "properties": {
        "name": "Hugo Weaving",
        "born": 1960
      }
    },
    "hugoMovies": {
      "identity": 10,
      "labels": [
        "Movie"
      ],
      "properties": {
        "title": "The Matrix Revolutions",
        "tagline": "Everything that has a beginning has an end",
        "released": 2003
      }
    },
    "directors": {
      "identity": 5,
      "labels": [
        "Person"
      ],
      "properties": {
        "name": "Lilly Wachowski",
        "born": 1967
      }
    }
  },
  {
    "hugo": {
      "identity": 4,
      "labels": [
        "Person"
      ],
      "properties": {
        "name": "Hugo Weaving",
        "born": 1960
      }
    },
    "hugoMovies": {
      "identity": 9,
      "labels": [
        "Movie"
      ],
      "properties": {
        "title": "The Matrix Reloaded",
        "tagline": "Free your mind",
        "released": 2003
      }
    },
    "directors": {
      "identity": 6,
      "labels": [
        "Person"
      ],
      "properties": {
        "name": "Lana Wachowski",
        "born": 1965
      }
    }
  },
  {
    "hugo": {
      "identity": 4,
      "labels": [
        "Person"
      ],
      "properties": {
        "name": "Hugo Weaving",
        "born": 1960
      }
    },
    "hugoMovies": {
      "identity": 9,
      "labels": [
        "Movie"
      ],
      "properties": {
        "title": "The Matrix Reloaded",
        "tagline": "Free your mind",
        "released": 2003
      }
    },
    "directors": {
      "identity": 5,
      "labels": [
        "Person"
      ],
      "properties": {
        "name": "Lilly Wachowski",
        "born": 1967
      }
    }
  },
  {
    "hugo": {
      "identity": 4,
      "labels": [
        "Person"
      ],
      "properties": {
        "name": "Hugo Weaving",
        "born": 1960
      }
    },
    "hugoMovies": {
      "identity": 0,
      "labels": [
        "Movie"
      ],
      "properties": {
        "title": "The Matrix",
        "tagline": "Welcome to the Real World",
        "released": 1999
      }
    },
    "directors": {
      "identity": 6,
      "labels": [
        "Person"
      ],
      "properties": {
        "name": "Lana Wachowski",
        "born": 1965
      }
    }
  },
  {
    "hugo": {
      "identity": 4,
      "labels": [
        "Person"
      ],
      "properties": {
        "name": "Hugo Weaving",
        "born": 1960
      }
    },
    "hugoMovies": {
      "identity": 0,
      "labels": [
        "Movie"
      ],
      "properties": {
        "title": "The Matrix",
        "tagline": "Welcome to the Real World",
        "released": 1999
      }
    },
    "directors": {
      "identity": 5,
      "labels": [
        "Person"
      ],
      "properties": {
        "name": "Lilly Wachowski",
        "born": 1967
      }
    }
  }
]